lab3/cpu_hw.vcd
$date
	Tue Nov 26 21:54:09 2019
$end
$version
	Icarus Verilog
$end
$timescale
	1ps
$end
$scope module testbench $end
$var reg 1 ! Clk $end
$var reg 1 " Rst $end
$var reg 32 # cycles [31:0] $end
$var reg 32 $ i [31:0] $end
$scope module cpu $end
$var wire 32 % A [31:0] $end
$var wire 3 & ALUctr [2:0] $end
$var wire 32 ' B [31:0] $end
$var wire 32 ( DX_JT [31:0] $end
$var wire 32 ) DX_MD [31:0] $end
$var wire 1 * DX_MemRead $end
$var wire 1 + DX_MemWrite $end
$var wire 1 , DX_MemtoReg $end
$var wire 32 - DX_NPC [31:0] $end
$var wire 32 . DX_PC [31:0] $end
$var wire 5 / DX_RD [4:0] $end
$var wire 1 0 DX_RegWrite $end
$var wire 1 1 DX_branch $end
$var wire 1 2 DX_jump $end
$var wire 32 3 FD_IR [31:0] $end
$var wire 32 4 FD_PC [31:0] $end
$var wire 32 5 MDR [31:0] $end
$var wire 32 6 MW_ALUout [31:0] $end
$var wire 1 7 MW_MemtoReg $end
$var wire 5 8 MW_RD [4:0] $end
$var wire 1 9 MW_RegWrite $end
$var wire 32 : XM_ALUout [31:0] $end
$var wire 32 ; XM_BT [31:0] $end
$var wire 32 < XM_MD [31:0] $end
$var wire 1 = XM_MemRead $end
$var wire 1 > XM_MemWrite $end
$var wire 1 ? XM_MemtoReg $end
$var wire 5 @ XM_RD [4:0] $end
$var wire 1 A XM_RegWrite $end
$var wire 1 B XM_branch $end
$var wire 1 C clk $end
$var wire 16 D imm [15:0] $end
$var wire 1 E rst $end
$scope module IF $end
$var wire 1 B branch $end
$var wire 32 F branch_addr [31:0] $end
$var wire 1 C clk $end
$var wire 1 2 jump $end
$var wire 32 G jump_addr [31:0] $end
$var wire 1 E rst $end
$var reg 32 H IR [31:0] $end
$var reg 32 I PC [31:0] $end
$upscope $end
$scope module ID $end
$var wire 32 J IR [31:0] $end
$var wire 32 K MDR [31:0] $end
$var wire 32 L MW_ALUout [31:0] $end
$var wire 1 7 MW_MemtoReg $end
$var wire 5 M MW_RD [4:0] $end
$var wire 1 9 MW_RegWrite $end
$var wire 32 N PC [31:0] $end
$var wire 1 C clk $end
$var wire 1 E rst $end
$var reg 32 O A [31:0] $end
$var reg 3 P ALUctr [2:0] $end
$var reg 32 Q B [31:0] $end
$var reg 32 R DX_PC [31:0] $end
$var reg 32 S JT [31:0] $end
$var reg 32 T MD [31:0] $end
$var reg 1 U MemRead $end
$var reg 1 V MemWrite $end
$var reg 1 W MemtoReg $end
$var reg 32 X NPC [31:0] $end
$var reg 5 Y RD [4:0] $end
$var reg 1 Z RegWrite $end
$var reg 1 [ branch $end
$var reg 16 \ imm [15:0] $end
$var reg 1 ] jump $end
$upscope $end
$scope module EXE $end
$var wire 32 ^ A [31:0] $end
$var wire 3 _ ALUctr [2:0] $end
$var wire 32 ` B [31:0] $end
$var wire 32 a DX_MD [31:0] $end
$var wire 1 * DX_MemRead $end
$var wire 1 + DX_MemWrite $end
$var wire 1 , DX_MemtoReg $end
$var wire 32 b DX_PC [31:0] $end
$var wire 5 c DX_RD [4:0] $end
$var wire 1 0 DX_RegWrite $end
$var wire 1 1 DX_branch $end
$var wire 1 d DX_jump $end
$var wire 32 e JT [31:0] $end
$var wire 32 f NPC [31:0] $end
$var wire 1 C clk $end
$var wire 16 g imm [15:0] $end
$var wire 1 E rst $end
$var reg 32 h ALUout [31:0] $end
$var reg 32 i XM_BT [31:0] $end
$var reg 32 j XM_MD [31:0] $end
$var reg 1 k XM_MemRead $end
$var reg 1 l XM_MemWrite $end
$var reg 1 m XM_MemtoReg $end
$var reg 5 n XM_RD [4:0] $end
$var reg 1 o XM_RegWrite $end
$var reg 1 p XM_branch $end
$upscope $end
$scope module MEM $end
$var wire 32 q ALUout [31:0] $end
$var wire 32 r XM_MD [31:0] $end
$var wire 1 = XM_MemRead $end
$var wire 1 > XM_MemWrite $end
$var wire 1 ? XM_MemtoReg $end
$var wire 5 s XM_RD [4:0] $end
$var wire 1 A XM_RegWrite $end
$var wire 1 C clk $end
$var wire 1 E rst $end
$var reg 32 t MDR [31:0] $end
$var reg 32 u MW_ALUout [31:0] $end
$var reg 1 v MW_MemtoReg $end
$var reg 5 w MW_RD [4:0] $end
$var reg 1 x MW_RegWrite $end
$upscope $end
$upscope $end
$upscope $end
$enddefinitions $end
#0
$dumpvars
0x
b0 w
0v
b0 u
b0 t
b0 s
b0 r
b0 q
0p
0o
b0 n
0m
0l
0k
b0 j
b0 i
b0 h
b0 g
b0 f
bz e
zd
b0 c
bz b
b0 a
b0 `
b0 _
b0 ^
0]
b0 \
0[
0Z
b0 Y
b0 X
0W
0V
0U
b0 T
b0 S
b0 R
b0 Q
b0 P
b0 O
b0 N
b0 M
b0 L
b0 K
b0 J
b0 I
b0 H
b0 G
b0 F
1E
b0 D
1C
0B
0A
b0 @
0?
0>
0=
b0 <
b0 ;
b0 :
09
b0 8
07
b0 6
b0 5
b0 4
b0 3
02
01
00
b0 /
b0 .
b0 -
0,
0+
0*
b0 )
b0 (
b0 '
b0 &
b0 %
b100000 $
b0 #
1"
1!
$end
#10000
0!
0C
#12000
0"
0E
#20000
1Z
10
b100 I
b100 4
b100 N
b10001100000001010000000000000000 H
b10001100000001010000000000000000 3
b10001100000001010000000000000000 J
b1 #
1!
1C
#30000
0!
0C
#40000
b110011000000100000 H
b110011000000100000 3
b110011000000100000 J
b1000 I
b1000 4
b1000 N
b10000000101000000000000000000 S
b10000000101000000000000000000 (
b10000000101000000000000000000 G
b100 X
b100 -
b100 f
b100 R
b100 .
1U
1*
1W
1,
b101 Y
b101 /
b101 c
1o
1A
b10 #
1!
1C
#50000
0!
0C
#60000
1x
19
b100 i
b100 ;
b100 F
b101 n
b101 @
b101 s
1k
1=
1m
1?
0U
0*
0W
0,
b110 Y
b110 /
b110 c
b11 Q
b11 '
b11 `
b11001100000010000000 S
b11001100000010000000 (
b11001100000010000000 G
b1000 X
b1000 -
b1000 f
b1000 R
b1000 .
b11000000100000 \
b11000000100000 D
b11000000100000 g
b11 T
b11 )
b11 a
b1100 I
b1100 4
b1100 N
b110011100000100000 H
b110011100000100000 3
b110011100000100000 J
b11 #
1!
1C
#70000
0!
0C
#80000
b10101100000000100000000000000001 H
b10101100000000100000000000000001 3
b10101100000000100000000000000001 J
b10000 I
b10000 4
b10000 N
b11001110000010000000 S
b11001110000010000000 (
b11001110000010000000 G
b1100 X
b1100 -
b1100 f
b1100 R
b1100 .
b11100000100000 \
b11100000100000 D
b11100000100000 g
b111 Y
b111 /
b111 c
b1100000010001000 i
b1100000010001000 ;
b1100000010001000 F
b11 j
b11 <
b11 r
b110 n
b110 @
b110 s
0k
0=
0m
0?
b11 h
b11 :
b11 q
b101 w
b101 8
b101 M
b101 t
b101 5
b101 K
1v
17
b100 #
1!
1C
#90000
0!
0C
#100000
b110 w
b110 8
b110 M
b11 u
b11 6
b11 L
0v
07
b1110000010001100 i
b1110000010001100 ;
b1110000010001100 F
b111 n
b111 @
b111 s
1V
1+
0Z
00
1W
1,
b10 Y
b10 /
b10 c
b1 Q
b1 '
b1 `
b10000000010000000000000000100 S
b10000000010000000000000000100 (
b10000000010000000000000000100 G
b10000 X
b10000 -
b10000 f
b10000 R
b10000 .
b1 \
b1 D
b1 g
b10 T
b10 )
b10 a
b10100 I
b10100 4
b10100 N
b101000010010000000100100 H
b101000010010000000100100 3
b101000010010000000100100 J
b101 #
1!
1C
#110000
0!
0C
#120000
b10100101000110000000000000111 H
b10100101000110000000000000111 3
b10100101000110000000000000111 J
b11000 I
b11000 4
b11000 N
b10100001001000000010010000 S
b10100001001000000010010000 (
b10100001001000000010010000 G
b10100 X
b10100 -
b10100 f
b10100 R
b10100 .
b10000000100100 \
b10000000100100 D
b10000000100100 g
b1 T
b1 )
b1 a
b101 O
b101 %
b101 ^
b10 P
b10 &
b10 _
0V
0+
1Z
10
0W
0,
b100 Y
b100 /
b100 c
b10100 i
b10100 ;
b10100 F
b10 j
b10 <
b10 r
b10 n
b10 @
b10 s
1l
1>
0o
0A
1m
1?
b1 h
b1 :
b1 q
b111 w
b111 8
b111 M
b110 #
1!
1C
#130000
0!
0C
#140000
b10 w
b10 8
b10 M
b1 u
b1 6
b1 L
0x
09
1v
17
b1000000010100100 i
b1000000010100100 ;
b1000000010100100 F
b1 j
b1 <
b1 r
b100 n
b100 @
b100 s
0l
0>
1o
1A
0m
0?
b110 P
b110 &
b110 _
1[
11
0Z
00
b11 Q
b11 '
b11 `
b10010100011000000000000011100 S
b10010100011000000000000011100 (
b10010100011000000000000011100 G
b11000 X
b11000 -
b11000 f
b11000 R
b11000 .
b111 \
b111 D
b111 g
b11 T
b11 )
b11 a
b11100 I
b11100 4
b11100 N
b10101100000001000000000000000010 H
b10101100000001000000000000000010 3
b10101100000001000000000000000010 J
b111 #
1!
1C
#150000
0!
0C
#160000
b100000 H
b100000 3
b100000 J
b100000 I
b100000 4
b100000 N
b10000000100000000000000001000 S
b10000000100000000000000001000 (
b10000000100000000000000001000 G
b11100 X
b11100 -
b11100 f
b11100 R
b11100 .
b10 \
b10 D
b10 g
b101 T
b101 )
b101 a
b0 O
b0 %
b0 ^
b0 P
b0 &
b0 _
0[
01
1V
1+
1W
1,
b10 Q
b10 '
b10 `
b110100 i
b110100 ;
b110100 F
1p
1B
b11 j
b11 <
b11 r
0o
0A
b0 h
b0 :
b0 q
b100 w
b100 8
b100 M
1x
19
0v
07
b1000 #
1!
1C
#170000
0!
0C
#180000
b0 u
b0 6
b0 L
0x
09
b10 h
b10 :
b10 q
b100100 i
b100100 ;
b100100 F
0p
0B
b101 j
b101 <
b101 r
1l
1>
1m
1?
0V
0+
1Z
10
0W
0,
b0 Y
b0 /
b0 c
b0 Q
b0 '
b0 `
b10000000 S
b10000000 (
b10000000 G
b100000 X
b100000 -
b100000 f
b100000 R
b100000 .
b100000 \
b100000 D
b100000 g
b0 T
b0 )
b0 a
b110100 I
b110100 4
b110100 N
b1001000010000000100010 H
b1001000010000000100010 3
b1001000010000000100010 J
b1001 #
1!
1C
#190000
0!
0C
#200000
b110001010100000000101010 H
b110001010100000000101010 3
b110001010100000000101010 J
b111000 I
b111000 4
b111000 N
b100100001000000010001000 S
b100100001000000010001000 (
b100100001000000010001000 G
b110100 X
b110100 -
b110100 f
b110100 R
b110100 .
b10000000100010 \
b10000000100010 D
b10000000100010 g
b1 T
b1 )
b1 a
b1 O
b1 %
b1 ^
b1 P
b1 &
b1 _
b100 Y
b100 /
b100 c
b1 Q
b1 '
b1 `
b10100000 i
b10100000 ;
b10100000 F
b0 j
b0 <
b0 r
b0 n
b0 @
b0 s
0l
0>
1o
1A
0m
0?
b0 h
b0 :
b0 q
b10 u
b10 6
b10 L
1v
17
b1010 #
1!
1C
#210000
0!
0C
#220000
b0 w
b0 8
b0 M
b0 u
b0 6
b0 L
1x
19
0v
07
b1000000010111100 i
b1000000010111100 ;
b1000000010111100 F
b1 j
b1 <
b1 r
b100 n
b100 @
b100 s
b100 P
b100 &
b100 _
b1000 Y
b1000 /
b1000 c
b101 Q
b101 '
b101 `
b11000101010000000010101000 S
b11000101010000000010101000 (
b11000101010000000010101000 G
b111000 X
b111000 -
b111000 f
b111000 R
b111000 .
b100000000101010 \
b100000000101010 D
b100000000101010 g
b101 T
b101 )
b101 a
b11 O
b11 %
b11 ^
b111100 I
b111100 4
b111100 N
b100000 H
b100000 3
b100000 J
b1011 #
1!
1C
#230000
0!
0C
#240000
b1000000 I
b1000000 4
b1000000 N
b10000000 S
b10000000 (
b10000000 G
b111100 X
b111100 -
b111100 f
b111100 R
b111100 .
b100000 \
b100000 D
b100000 g
b0 T
b0 )
b0 a
b0 O
b0 %
b0 ^
b0 P
b0 &
b0 _
b0 Y
b0 /
b0 c
b0 Q
b0 '
b0 `
b10000000011100000 i
b10000000011100000 ;
b10000000011100000 F
b101 j
b101 <
b101 r
b1000 n
b1000 @
b1000 s
b1 h
b1 :
b1 q
b100 w
b100 8
b100 M
b1100 #
1!
1C
#250000
0!
0C
#260000
b1000 w
b1000 8
b1000 M
b1 u
b1 6
b1 L
b0 h
b0 :
b0 q
b10111100 i
b10111100 ;
b10111100 F
b0 j
b0 <
b0 r
b0 n
b0 @
b0 s
b1000000 X
b1000000 -
b1000000 f
b1000000 R
b1000000 .
b1000100 I
b1000100 4
b1000100 N
b110001110011000000100000 H
b110001110011000000100000 3
b110001110011000000100000 J
b1101 #
1!
1C
#270000
0!
0C
#280000
b10001000000000000000000001000 H
b10001000000000000000000001000 3
b10001000000000000000000001000 J
b1001000 I
b1001000 4
b1001000 N
b11000111001100000010000000 S
b11000111001100000010000000 (
b11000111001100000010000000 G
b1000100 X
b1000100 -
b1000100 f
b1000100 R
b1000100 .
b11000000100000 \
b11000000100000 D
b11000000100000 g
b11 T
b11 )
b11 a
b11 O
b11 %
b11 ^
b110 Y
b110 /
b110 c
b11 Q
b11 '
b11 `
b11000000 i
b11000000 ;
b11000000 F
b0 w
b0 8
b0 M
b0 u
b0 6
b0 L
b1110 #
1!
1C
#290000
0!
0C
#300000
b110 h
b110 :
b110 q
b1100000011000100 i
b1100000011000100 ;
b1100000011000100 F
b11 j
b11 <
b11 r
b110 n
b110 @
b110 s
b101 P
b101 &
b101 _
1[
11
0Z
00
b0 Q
b0 '
b0 `
b100000000000000000000100000 S
b100000000000000000000100000 (
b100000000000000000000100000 G
b1001000 X
b1001000 -
b1001000 f
b1001000 R
b1001000 .
b1000 \
b1000 D
b1000 g
b0 T
b0 )
b0 a
b1 O
b1 %
b1 ^
b1001100 I
b1001100 4
b1001100 N
b100000 H
b100000 3
b100000 J
b1111 #
1!
1C
#310000
0!
0C
#320000
b1010000 I
b1010000 4
b1010000 N
b10000000 S
b10000000 (
b10000000 G
b1001100 X
b1001100 -
b1001100 f
b1001100 R
b1001100 .
b100000 \
b100000 D
b100000 g
b0 O
b0 %
b0 ^
b0 P
b0 &
b0 _
0[
01
1Z
10
b0 Y
b0 /
b0 c
b1101000 i
b1101000 ;
b1101000 F
b0 j
b0 <
b0 r
0o
0A
b0 h
b0 :
b0 q
b110 w
b110 8
b110 M
b110 u
b110 6
b110 L
b10000 #
1!
1C
#330000
0!
0C
#340000
b0 u
b0 6
b0 L
0x
09
b11001100 i
b11001100 ;
b11001100 F
b0 n
b0 @
b0 s
1o
1A
b1010000 X
b1010000 -
b1010000 f
b1010000 R
b1010000 .
b1010100 I
b1010100 4
b1010100 N
b110001110011000000100000 H
b110001110011000000100000 3
b110001110011000000100000 J
b10001 #
1!
1C
#350000
0!
0C
#360000
b111000010011100000100000 H
b111000010011100000100000 3
b111000010011100000100000 J
b1011000 I
b1011000 4
b1011000 N
b11000111001100000010000000 S
b11000111001100000010000000 (
b11000111001100000010000000 G
b1010100 X
b1010100 -
b1010100 f
b1010100 R
b1010100 .
b11000000100000 \
b11000000100000 D
b11000000100000 g
b11 T
b11 )
b11 a
b110 O
b110 %
b110 ^
b110 Y
b110 /
b110 c
b11 Q
b11 '
b11 `
b11010000 i
b11010000 ;
b11010000 F
b0 w
b0 8
b0 M
1x
19
b10010 #
1!
1C
#370000
0!
0C
#380000
b1001 h
b1001 :
b1001 q
b1100000011010100 i
b1100000011010100 ;
b1100000011010100 F
b11 j
b11 <
b11 r
b110 n
b110 @
b110 s
b111 Y
b111 /
b111 c
b1 Q
b1 '
b1 `
b11100001001110000010000000 S
b11100001001110000010000000 (
b11100001001110000010000000 G
b1011000 X
b1011000 -
b1011000 f
b1011000 R
b1011000 .
b11100000100000 \
b11100000100000 D
b11100000100000 g
b1 T
b1 )
b1 a
b11 O
b11 %
b11 ^
b1011100 I
b1011100 4
b1011100 N
b1000000000000000000000001101 H
b1000000000000000000000001101 3
b1000000000000000000000001101 J
b10011 #
1!
1C
#390000
0!
0C
#400000
b100000 H
b100000 3
b100000 J
b1100000 I
b1100000 4
b1100000 N
b110100 S
b110100 (
b110100 G
1]
12
b1011100 X
b1011100 -
b1011100 f
b1011100 R
b1011100 .
b1101 \
b1101 D
b1101 g
b0 T
b0 )
b0 a
b0 O
b0 %
b0 ^
b111 P
b111 &
b111 _
0Z
00
b1110000011011000 i
b1110000011011000 ;
b1110000011011000 F
b1 j
b1 <
b1 r
b111 n
b111 @
b111 s
b100 h
b100 :
b100 q
b110 w
b110 8
b110 M
b1001 u
b1001 6
b1001 L
b10100 #
1!
1C
#410000
0!
0C
#420000
b111 w
b111 8
b111 M
b100 u
b100 6
b100 L
b0 h
b0 :
b0 q
b10010000 i
b10010000 ;
b10010000 F
b0 j
b0 <
b0 r
0o
0A
b0 P
b0 &
b0 _
1Z
10
b0 Y
b0 /
b0 c
b0 Q
b0 '
b0 `
b10000000 S
b10000000 (
b10000000 G
0]
02
b1100000 X
b1100000 -
b1100000 f
b1100000 R
b1100000 .
b100000 \
b100000 D
b100000 g
b110100 I
b110100 4
b110100 N
b10101 #
1!
1C
#430000
0!
0C
#440000
b110001010100000000101010 H
b110001010100000000101010 3
b110001010100000000101010 J
b111000 I
b111000 4
b111000 N
b110100 X
b110100 -
b110100 f
b110100 R
b110100 .
b11100000 i
b11100000 ;
b11100000 F
b0 n
b0 @
b0 s
1o
1A
b0 u
b0 6
b0 L
0x
09
b10110 #
1!
1C
#450000
0!
0C
#460000
b0 w
b0 8
b0 M
1x
19
b10110100 i
b10110100 ;
b10110100 F
b100 P
b100 &
b100 _
b1000 Y
b1000 /
b1000 c
b101 Q
b101 '
b101 `
b11000101010000000010101000 S
b11000101010000000010101000 (
b11000101010000000010101000 G
b111000 X
b111000 -
b111000 f
b111000 R
b111000 .
b100000000101010 \
b100000000101010 D
b100000000101010 g
b101 T
b101 )
b101 a
b1001 O
b1001 %
b1001 ^
b111100 I
b111100 4
b111100 N
b100000 H
b100000 3
b100000 J
b10111 #
1!
1C
#470000
0!
0C
#480000
b1000000 I
b1000000 4
b1000000 N
b10000000 S
b10000000 (
b10000000 G
b111100 X
b111100 -
b111100 f
b111100 R
b111100 .
b100000 \
b100000 D
b100000 g
b0 T
b0 )
b0 a
b0 O
b0 %
b0 ^
b0 P
b0 &
b0 _
b0 Y
b0 /
b0 c
b0 Q
b0 '
b0 `
b10000000011100000 i
b10000000011100000 ;
b10000000011100000 F
b101 j
b101 <
b101 r
b1000 n
b1000 @
b1000 s
b11000 #
1!
1C
#490000
0!
0C
#500000
b1000 w
b1000 8
b1000 M
b10111100 i
b10111100 ;
b10111100 F
b0 j
b0 <
b0 r
b0 n
b0 @
b0 s
b1000000 X
b1000000 -
b1000000 f
b1000000 R
b1000000 .
b1000100 I
b1000100 4
b1000100 N
b110001110011000000100000 H
b110001110011000000100000 3
b110001110011000000100000 J
b11001 #
1!
1C
#510000
0!
0C
#520000
b10001000000000000000000001000 H
b10001000000000000000000001000 3
b10001000000000000000000001000 J
b1001000 I
b1001000 4
b1001000 N
b11000111001100000010000000 S
b11000111001100000010000000 (
b11000111001100000010000000 G
b1000100 X
b1000100 -
b1000100 f
b1000100 R
b1000100 .
b11000000100000 \
b11000000100000 D
b11000000100000 g
b100 T
b100 )
b100 a
b1001 O
b1001 %
b1001 ^
b110 Y
b110 /
b110 c
b100 Q
b100 '
b100 `
b11000000 i
b11000000 ;
b11000000 F
b0 w
b0 8
b0 M
b11010 #
1!
1C
#530000
0!
0C
#540000
b1101 h
b1101 :
b1101 q
b1100000011000100 i
b1100000011000100 ;
b1100000011000100 F
b100 j
b100 <
b100 r
b110 n
b110 @
b110 s
b101 P
b101 &
b101 _
1[
11
0Z
00
b0 Q
b0 '
b0 `
b100000000000000000000100000 S
b100000000000000000000100000 (
b100000000000000000000100000 G
b1001000 X
b1001000 -
b1001000 f
b1001000 R
b1001000 .
b1000 \
b1000 D
b1000 g
b0 T
b0 )
b0 a
b0 O
b0 %
b0 ^
b1001100 I
b1001100 4
b1001100 N
b100000 H
b100000 3
b100000 J
b11011 #
1!
1C
#550000
0!
0C
#560000
b1010000 I
b1010000 4
b1010000 N
b10000000 S
b10000000 (
b10000000 G
b1001100 X
b1001100 -
b1001100 f
b1001100 R
b1001100 .
b100000 \
b100000 D
b100000 g
b0 P
b0 &
b0 _
0[
01
1Z
10
b0 Y
b0 /
b0 c
b1101000 i
b1101000 ;
b1101000 F
1p
1B
b0 j
b0 <
b0 r
0o
0A
b0 h
b0 :
b0 q
b110 w
b110 8
b110 M
b1101 u
b1101 6
b1101 L
b11100 #
1!
1C
#570000
0!
0C
#580000
b0 u
b0 6
b0 L
0x
09
b11001100 i
b11001100 ;
b11001100 F
0p
0B
b0 n
b0 @
b0 s
1o
1A
b1010000 X
b1010000 -
b1010000 f
b1010000 R
b1010000 .
b1101000 I
b1101000 4
b1101000 N
b110001110011000000100000 H
b110001110011000000100000 3
b110001110011000000100000 J
b11101 #
1!
1C
#590000
0!
0C
#600000
b101001000101100000100000 H
b101001000101100000100000 3
b101001000101100000100000 J
b1101100 I
b1101100 4
b1101100 N
b11000111001100000010000000 S
b11000111001100000010000000 (
b11000111001100000010000000 G
b1101000 X
b1101000 -
b1101000 f
b1101000 R
b1101000 .
b11000000100000 \
b11000000100000 D
b11000000100000 g
b100 T
b100 )
b100 a
b1101 O
b1101 %
b1101 ^
b110 Y
b110 /
b110 c
b100 Q
b100 '
b100 `
b11010000 i
b11010000 ;
b11010000 F
b0 w
b0 8
b0 M
1x
19
b11110 #
1!
1C
#610000
0!
0C
#620000
b10001 h
b10001 :
b10001 q
b1100000011101000 i
b1100000011101000 ;
b1100000011101000 F
b100 j
b100 <
b100 r
b110 n
b110 @
b110 s
b1011 Y
b1011 /
b1011 c
b0 Q
b0 '
b0 `
b10100100010110000010000000 S
b10100100010110000010000000 (
b10100100010110000010000000 G
b1101100 X
b1101100 -
b1101100 f
b1101100 R
b1101100 .
b101100000100000 \
b101100000100000 D
b101100000100000 g
b0 T
b0 )
b0 a
b101 O
b101 %
b101 ^
b1110000 I
b1110000 4
b1110000 N
b101001000110000000100010 H
b101001000110000000100010 3
b101001000110000000100010 J
b11111 #
1!
1C
#630000
0!
0C
#640000
b100000 H
b100000 3
b100000 J
b1110100 I
b1110100 4
b1110100 N
b10100100011000000010001000 S
b10100100011000000010001000 (
b10100100011000000010001000 G
b1110000 X
b1110000 -
b1110000 f
b1110000 R
b1110000 .
b110000000100010 \
b110000000100010 D
b110000000100010 g
b1 P
b1 &
b1 _
b1100 Y
b1100 /
b1100 c
b10110000011101100 i
b10110000011101100 ;
b10110000011101100 F
b0 j
b0 <
b0 r
b1011 n
b1011 @
b1011 s
b101 h
b101 :
b101 q
b110 w
b110 8
b110 M
b10001 u
b10001 6
b10001 L
b100000 #
1!
1C
#650000
0!
0C
#660000
b1011 w
b1011 8
b1011 M
b101 u
b101 6
b101 L
b11000000011111000 i
b11000000011111000 ;
b11000000011111000 F
b1100 n
b1100 @
b1100 s
b0 P
b0 &
b0 _
b0 Y
b0 /
b0 c
b10000000 S
b10000000 (
b10000000 G
b1110100 X
b1110100 -
b1110100 f
b1110100 R
b1110100 .
b100000 \
b100000 D
b100000 g
b0 O
b0 %
b0 ^
b1111000 I
b1111000 4
b1111000 N
b110010000000100000 H
b110010000000100000 3
b110010000000100000 J
b100001 #
1!
1C
#670000
0!
0C
#680000
b1011000100101100000100010 H
b1011000100101100000100010 3
b1011000100101100000100010 J
b1111100 I
b1111100 4
b1111100 N
b11001000000010000000 S
b11001000000010000000 (
b11001000000010000000 G
b1111000 X
b1111000 -
b1111000 f
b1111000 R
b1111000 .
b10000000100000 \
b10000000100000 D
b10000000100000 g
b11 T
b11 )
b11 a
b100 Y
b100 /
b100 c
b11 Q
b11 '
b11 `
b11110100 i
b11110100 ;
b11110100 F
b0 n
b0 @
b0 s
b0 h
b0 :
b0 q
b1100 w
b1100 8
b1100 M
b100010 #
1!
1C
#690000
0!
0C
#700000
b0 w
b0 8
b0 M
b0 u
b0 6
b0 L
b11 h
b11 :
b11 q
b1000000011111000 i
b1000000011111000 ;
b1000000011111000 F
b11 j
b11 <
b11 r
b100 n
b100 @
b100 s
b1 P
b1 &
b1 _
b1011 Y
b1011 /
b1011 c
b10 Q
b10 '
b10 `
b101100010010110000010001000 S
b101100010010110000010001000 (
b101100010010110000010001000 G
b1111100 X
b1111100 -
b1111100 f
b1111100 R
b1111100 .
b101100000100010 \
b101100000100010 D
b101100000100010 g
b10 T
b10 )
b10 a
b101 O
b101 %
b101 ^
b10000000 I
b10000000 4
b10000000 N
b100000 H
b100000 3
b100000 J
b100011 #
1!
1C
#710000
0!
0C
#720000
b10000100 I
b10000100 4
b10000100 N
b10000000 S
b10000000 (
b10000000 G
b10000000 X
b10000000 -
b10000000 f
b10000000 R
b10000000 .
b100000 \
b100000 D
b100000 g
b0 T
b0 )
b0 a
b0 O
b0 %
b0 ^
b0 P
b0 &
b0 _
b0 Y
b0 /
b0 c
b0 Q
b0 '
b0 `
b10110000100000100 i
b10110000100000100 ;
b10110000100000100 F
b10 j
b10 <
b10 r
b1011 n
b1011 @
b1011 s
b100 w
b100 8
b100 M
b11 u
b11 6
b11 L
b100100 #
1!
1C
#730000
0!
0C
#740000
b1011 w
b1011 8
b1011 M
b0 h
b0 :
b0 q
b100000000 i
b100000000 ;
b100000000 F
b0 j
b0 <
b0 r
b0 n
b0 @
b0 s
b10000100 X
b10000100 -
b10000100 f
b10000100 R
b10000100 .
b10001000 I
b10001000 4
b10001000 N
b100001110100000000101010 H
b100001110100000000101010 3
b100001110100000000101010 J
b100101 #
1!
1C
#750000
0!
0C
#760000
b100000 H
b100000 3
b100000 J
b10001100 I
b10001100 4
b10001100 N
b10000111010000000010101000 S
b10000111010000000010101000 (
b10000111010000000010101000 G
b10001000 X
b10001000 -
b10001000 f
b10001000 R
b10001000 .
b100000000101010 \
b100000000101010 D
b100000000101010 g
b100 T
b100 )
b100 a
b11 O
b11 %
b11 ^
b100 P
b100 &
b100 _
b1000 Y
b1000 /
b1000 c
b100 Q
b100 '
b100 `
b100000100 i
b100000100 ;
b100000100 F
b0 w
b0 8
b0 M
b0 u
b0 6
b0 L
b100110 #
1!
1C
#770000
0!
0C
#780000
b1 h
b1 :
b1 q
b10000000100110000 i
b10000000100110000 ;
b10000000100110000 F
b100 j
b100 <
b100 r
b1000 n
b1000 @
b1000 s
b0 P
b0 &
b0 _
b0 Y
b0 /
b0 c
b0 Q
b0 '
b0 `
b10000000 S
b10000000 (
b10000000 G
b10001100 X
b10001100 -
b10001100 f
b10001100 R
b10001100 .
b100000 \
b100000 D
b100000 g
b0 T
b0 )
b0 a
b0 O
b0 %
b0 ^
b10010000 I
b10010000 4
b10010000 N
b100111 #
1!
1C
#790000
0!
0C
#800000
b10010100 I
b10010100 4
b10010100 N
b10010000 X
b10010000 -
b10010000 f
b10010000 R
b10010000 .
b100001100 i
b100001100 ;
b100001100 F
b0 j
b0 <
b0 r
b0 n
b0 @
b0 s
b0 h
b0 :
b0 q
b1000 w
b1000 8
b1000 M
b1 u
b1 6
b1 L
b101000 #
1!
1C
#810000
0!
0C
#820000
b0 w
b0 8
b0 M
b0 u
b0 6
b0 L
b100010000 i
b100010000 ;
b100010000 F
b10010100 X
b10010100 -
b10010100 f
b10010100 R
b10010100 .
b10011000 I
b10011000 4
b10011000 N
b10001000000000000000000100101 H
b10001000000000000000000100101 3
b10001000000000000000000100101 J
b101001 #
1!
1C
#830000
0!
0C
#840000
b100001000011000000100000 H
b100001000011000000100000 3
b100001000011000000100000 J
b10011100 I
b10011100 4
b10011100 N
b100000000000000000010010100 S
b100000000000000000010010100 (
b100000000000000000010010100 G
b10011000 X
b10011000 -
b10011000 f
b10011000 R
b10011000 .
b100101 \
b100101 D
b100101 g
b1 O
b1 %
b1 ^
b101 P
b101 &
b101 _
1[
11
0Z
00
b100010100 i
b100010100 ;
b100010100 F
b101010 #
1!
1C
#850000
0!
0C
#860000
b100101100 i
b100101100 ;
b100101100 F
0o
0A
b0 P
b0 &
b0 _
0[
01
1Z
10
b110 Y
b110 /
b110 c
b11 Q
b11 '
b11 `
b10000100001100000010000000 S
b10000100001100000010000000 (
b10000100001100000010000000 G
b10011100 X
b10011100 -
b10011100 f
b10011100 R
b10011100 .
b11000000100000 \
b11000000100000 D
b11000000100000 g
b11 T
b11 )
b11 a
b11 O
b11 %
b11 ^
b10100000 I
b10100000 4
b10100000 N
b1011000000100100000100000 H
b1011000000100100000100000 3
b1011000000100100000100000 J
b101011 #
1!
1C
#870000
0!
0C
#880000
b100000 H
b100000 3
b100000 J
b10100100 I
b10100100 4
b10100100 N
b101100000010010000010000000 S
b101100000010010000010000000 (
b101100000010010000010000000 G
b10100000 X
b10100000 -
b10100000 f
b10100000 R
b10100000 .
b100100000100000 \
b100100000100000 D
b100100000100000 g
b0 T
b0 )
b0 a
b1001 Y
b1001 /
b1001 c
b0 Q
b0 '
b0 `
b1100000100011100 i
b1100000100011100 ;
b1100000100011100 F
b11 j
b11 <
b11 r
b110 n
b110 @
b110 s
1o
1A
b110 h
b110 :
b110 q
0x
09
b101100 #
1!
1C
#890000
0!
0C
#900000
b110 w
b110 8
b110 M
b110 u
b110 6
b110 L
1x
19
b11 h
b11 :
b11 q
b10010000100100000 i
b10010000100100000 ;
b10010000100100000 F
b0 j
b0 <
b0 r
b1001 n
b1001 @
b1001 s
b0 Y
b0 /
b0 c
b10000000 S
b10000000 (
b10000000 G
b10100100 X
b10100100 -
b10100100 f
b10100100 R
b10100100 .
b100000 \
b100000 D
b100000 g
b0 O
b0 %
b0 ^
b10101000 I
b10101000 4
b10101000 N
b101101 #
1!
1C
#910000
0!
0C
